{
    "GenericName": "KDevDocs Documentation",
    "KPlugin": {
        "Authors": [
            {
                "Name": "Anton Anikin",
                "Name[x-test]": "xxAnton Anikinxx"
            }
        ],
        "Category": "Documentation",
        "Description": "This plugin provides KDevDocs documentation integration",
        "Icon": "help-browser",
        "Id": "kdevdocsintegration",
        "License": "GPLv3",
        "Name": "KDevDocs Documentation",
        "ServiceTypes": [
            "KDevelop/Plugin"
        ]
    },
    "X-KDevelop-Category": "Global",
    "X-KDevelop-Mode": "GUI"
}
